…
``` r
Connections <- read_csv("/Users/chien/Library/CloudStorage/OneDrive-McGillUniversity/5d_Network_Analysis/Exercise1/Connections.csv", skip = 2, show_col_types=FALSE)
```

## Employer Count

``` r
employer_counts <- Connections %>% group_by(Company) %>% summarise(Count = n())

# View the summary
print(employer_counts)
```

    ## # A tibble: 162 × 2
    ##    Company                                              Count
    ##    <chr>                                                <int>
    ##  1 A*STAR - Agency for Science, Technology and Research     2
    ##  2 ALDO Group                                               1
    ##  3 Accenture                                                1
    ##  4 Air Transat                                              2
    ##  5 Airbus                                                   1
    ##  6 AltaML                                                   1
    ##  7 Amazon Web Services (AWS)                                2
    ##  8 Ameresco                                                 1
    ##  9 Applied Materials                                        1
    ## 10 AtkinsRéalis                                             3
    ## # ℹ 152 more rows
…
