…
    unique_examiners <- unique_examiners %>%
      filter(!is.na(examiner_id))

    # View the cleaned data
    print(unique_examiners)

    ## # A tibble: 10,304 × 5
    ##    examiner_id examiner_art_unit race  gender tenure_days
    ##          <dbl>             <dbl> <chr> <chr>        <dbl>
    ##  1       96082              1764 white female        5926
    ##  2       87678              1764 white <NA>          6093
    ##  3       63213              1752 white female        6344
    ##  4       73788              1648 white female        6331
    ##  5       77294              1762 white male          6332
    ##  6       68606              1734 white female        6345
    ##  7       89557              1627 black female        5634
    ##  8       97543              1645 white female          NA
    ##  9       98714              1637 white female        6331
    ## 10       65530              1723 Asian female        6345
    ## # ℹ 10,294 more rows
…
To select the workgroup of interest, we will summarise the number of
examiners in each workgroup.

    examiners_per_workgroup <- unique_examiners_clean %>%
      filter(!is.na(examiner_id), !is.na(workgroup)) %>%
      count(workgroup, name = "n_examiners") %>%
      arrange(desc(n_examiners))

    # View the sorted results
    print(examiners_per_workgroup)

    ## # A tibble: 38 × 2
    ##    workgroup n_examiners
    ##    <chr>           <int>
    ##  1 179               912
    ##  2 218               399
    ##  3 216               383
    ##  4 177               362
    ##  5 217               350
    ##  6 212               320
    ##  7 215               314
    ##  8 161               303
    ##  9 213               298
    ## 10 174               280
    ## # ℹ 28 more rows
…
