…
    unique_examiners <- unique_examiners %>%
      filter(!is.na(examiner_id))

    # View the cleaned data
    print(unique_examiners)

    ## # A tibble: 10,196 × 6
    ##    examiner_id examiner_art_unit race  gender tenure_days avg_app_proc_time
    ##          <dbl>             <dbl> <chr> <chr>        <dbl>             <dbl>
    ##  1       96082              1764 white female        5926              594.
    ##  2       87678              1764 white <NA>          6093              752.
    ##  3       63213              1752 white female        6344              928.
    ##  4       73788              1648 white female        6331             1047.
    ##  5       77294              1762 white male          6332              795.
    ##  6       68606              1734 white female        6345              921.
    ##  7       97543              1645 white female          NA             1343.
    ##  8       98714              1637 white female        6331             1235.
    ##  9       65530              1723 Asian female        6345             1015.
    ## 10       77112              1755 white female        6347              988.
    ## # ℹ 10,186 more rows
…
